{
  "log" : {
    "version" : "1.2",
    "pages" : [ ],
    "entries" : [ {
      "startedDateTime" : "2020-10-23T09:25:55.444Z",
      "request" : {
        "method" : "POST",
        "url" : "https://gen5-qc.asuransiastra.com/retail/API/InquiryPolicy/GetPolicyPaymentHistoryInfo",
        "httpVersion" : "",
        "cookies" : [ ],
        "headers" : [ {
          "name" : "Authorization",
          "value" : "Bearer QNvcLc+NccNrwGtVDqWd9Riia3P6+zKENvKM6e+w5hWjF6qcBxlazar+50y/009npKAUoGmrQjTDvyrM54x7UpPFjRB3jynvGpUdUhXd5BmK7AgYYfLtWb1d3WppMhRCWyHze7NbyQRz0YExdkjLn/RRuJx+ATd+AL29BnPlgaJeffbhO3muD/CAabxevtQhkkPBfwC7bKDuGVF7BvkLSBDPUB9yhLrcyvSfKzwjiTnwzh8MQkkuN+bLkWVlJfEB"
        }, {
          "name" : "Cookie",
          "value" : "${Cookie}"
        }, {
          "name" : "Content-Type",
          "value" : "application/x-www-form-urlencoded"
        } ],
        "queryString" : [ ],
        "postData" : {
          "mimeType" : "application/x-www-form-urlencoded",
          "params" : [ {
            "name" : "ReferenceNo",
            "value" : "2004306900-0",
            "comment" : ""
          }, {
            "name" : "SortOption",
            "value" : "-1",
            "comment" : ""
          }, {
            "name" : "SortDirection",
            "value" : "12",
            "comment" : ""
          } ],
          "comment" : ""
        },
        "headersSize" : 0,
        "bodySize" : 0,
        "comment" : ""
      },
      "response" : {
        "status" : 200,
        "statusText" : "",
        "httpVersion" : "",
        "cookies" : [ ],
        "headers" : [ {
          "name" : "X-Frame-Options",
          "value" : "SAMEORIGIN"
        }, {
          "name" : null,
          "value" : "HTTP/1.1 200 OK"
        }, {
          "name" : "Strict-Transport-Security",
          "value" : "max-age=16070400"
        }, {
          "name" : "Cache-Control",
          "value" : "no-cache"
        }, {
          "name" : "X-Content-Type-Options",
          "value" : "nosniff"
        }, {
          "name" : "Set-Cookie",
          "value" : "TS0125c461=015294299ac8e277afc6793c8e02e9edff96395859c236dee3a828af7c5dd9a6f321ffac9a0e4c714a68e1abe79df099ce83fdaf623994f3ea500571dfdf92d898a21ae4f5; Path=/; Domain=.gen5-qc.asuransiastra.com"
        }, {
          "name" : "Set-Cookie",
          "value" : "EGRUM_BTM=f42cfe11-a6cd-450e-8803-82db73d4e832#~#1||0; path=/"
        }, {
          "name" : "Expires",
          "value" : "-1"
        }, {
          "name" : "Pragma",
          "value" : "no-cache"
        }, {
          "name" : "X-XSS-Protection",
          "value" : "1; mode=block"
        }, {
          "name" : "Content-Length",
          "value" : "472"
        }, {
          "name" : "Date",
          "value" : "Fri, 23 Oct 2020 09:26:24 GMT"
        }, {
          "name" : "Content-Type",
          "value" : "application/json; charset=utf-8"
        } ],
        "content" : {
          "size" : 472,
          "mimeType" : "application/json; charset=utf-8",
          "text" : "{\"Status\":true,\"Message\":\"OK\",\"Data\":[{\"NoteNumber\":\"123DPR20000221\",\"ReferenceNumber\":\"2004306900-0\",\"NoteType\":\"DPR\",\"CurrencyID\":\"IDR\",\"ARAPAmount\":0.0000,\"NoteAmount\":6917100.0000,\"SettleAmount\":6917100.0000,\"TaxPercentage\":0.00,\"OverShortage\":0.0000,\"AccountNumber\":\"               \",\"DueDate\":\"02-11-2020 16:04:21\",\"SettleStatus\":\"Outstanding\",\"SettleDate\":\"\",\"OtherReferenceNumber\":\"                              \",\"Remarks\":\"\"}],\"Error\":\"\",\"NextApprovalUser\":null}",
          "comment" : ""
        },
        "redirectURL" : "",
        "headersSize" : 524,
        "bodySize" : 472,
        "comment" : ""
      },
      "cache" : { },
      "timings" : {
        "comment" : "",
        "blocked" : -1,
        "dns" : -1,
        "connect" : 292,
        "wait" : 0,
        "send" : 0,
        "receive" : 0,
        "ssl" : -1
      },
      "comment" : "",
      "_katalonRequestInformation" : {
        "name" : "13",
        "testObjectId" : "Object Repository/Inquiry Policy/GetPolicyPaymentHistoryInfo",
        "harId" : "78c9f60e-1304-444d-b2d3-cffe60c932fd",
        "reportFolder" : null
      },
      "time" : 292
    } ],
    "comment" : ""
  }
}