{
  "log" : {
    "version" : "1.2",
    "pages" : [ ],
    "entries" : [ {
      "startedDateTime" : "2020-10-23T09:19:24.064Z",
      "request" : {
        "method" : "POST",
        "url" : "https://gen5-qc.asuransiastra.com/retail/API/root/signin",
        "httpVersion" : "",
        "cookies" : [ ],
        "headers" : [ {
          "name" : "Content-Type",
          "value" : "application/x-www-form-urlencoded"
        }, {
          "name" : "Cookie",
          "value" : "EGRUM_BTM=0cca5db9-90d7-4633-84ec-86f3b6f269fd#~#1||0; TS0125c461=015294299a01ea503b680269b4ab46ec2383d0f69535519b2a8be07ec351a13f8acbecde5bd65264ab2d96ae443ee667e4a153ba740cf7902cd21040ac5a1035507c798606"
        } ],
        "queryString" : [ ],
        "postData" : {
          "mimeType" : "application/x-www-form-urlencoded",
          "params" : [ {
            "name" : "username",
            "value" : "doc",
            "comment" : ""
          }, {
            "name" : "password",
            "value" : "ITG@nt1P455QC",
            "comment" : ""
          }, {
            "name" : "biztype",
            "value" : "1",
            "comment" : ""
          } ],
          "comment" : ""
        },
        "headersSize" : 0,
        "bodySize" : 0,
        "comment" : ""
      },
      "response" : {
        "status" : 200,
        "statusText" : "",
        "httpVersion" : "",
        "cookies" : [ ],
        "headers" : [ {
          "name" : "X-Frame-Options",
          "value" : "SAMEORIGIN"
        }, {
          "name" : null,
          "value" : "HTTP/1.1 200 OK"
        }, {
          "name" : "Strict-Transport-Security",
          "value" : "max-age=16070400"
        }, {
          "name" : "Cache-Control",
          "value" : "private"
        }, {
          "name" : "X-Content-Type-Options",
          "value" : "nosniff"
        }, {
          "name" : "Set-Cookie",
          "value" : "TS0125c461=015294299a7c9ab3d60e6e49744e1ed0ec9dc5d427b515e6cf93eb691fc0c53548a7275b66bb4ca1284fb87f32cc4ecc9121fde3e4da4a525a1c589b673d3ec94ddf60daaa; Path=/; Domain=.gen5-qc.asuransiastra.com"
        }, {
          "name" : "Set-Cookie",
          "value" : "EGRUM_BTM=4c4a2b6a-a1a1-41f4-b1bc-da7c9ddbe616#~#1||0; path=/"
        }, {
          "name" : "Set-Cookie",
          "value" : "EGRUM_BTM=efd1ea72-5aaf-4d8f-b648-d69caf0fbac6#~#1||0; path=/"
        }, {
          "name" : "Expires",
          "value" : "-1"
        }, {
          "name" : "Pragma",
          "value" : "no-cache"
        }, {
          "name" : "X-XSS-Protection",
          "value" : "1; mode=block"
        }, {
          "name" : "Content-Length",
          "value" : "22027"
        }, {
          "name" : "Date",
          "value" : "Fri, 23 Oct 2020 09:19:52 GMT"
        }, {
          "name" : "Content-Type",
          "value" : "application/json; charset=utf-8"
        } ],
        "content" : {
          "size" : 22027,
          "mimeType" : "application/json; charset=utf-8",
          "text" : "{\"status\":true,\"errorCode\":0,\"token\":\"0fSbGBurZRA7XNQg3o02RcDpVwhvex2nTF8oIMoCV8rhILE2h7ZFo8ENcJpFFRU5vcqNZfAWt7ROWLq0dfap7ki0mpxLbyhYnqRycOw2e6pIiJ02eNVj/4ayp4KHmQHnGDSXM+F4gy04R34SgNXIMa1tkPQual6Bngg8q4gm961lfVg4jGkx5c6PzG83UX3EyocWIGG65VJCbBdt3FQhe1oB+U+aANNtOxdfqamTno0asTgkrJziTN+vqsYfQbeL\",\"validHours\":24,\"entryDate\":\"2016-05-03T15:39:10.15Z\",\"lastUpdatedTime\":\"2016-05-03T15:39:10.15Z\",\"userInfo\":{\"id\":\"doc\",\"fullName\":\"Deasy Octavia\",\"email\":\"DOC@beyond.asuransi.astra.co.id\",\"passwordExpiry\":\"9999-12-31\",\"lastChangedPassword\":\"2020-10-12 09:16:28\"},\"menu\":[{\"id\":77727,\"name\":\"ACQUISITION\",\"caption\":\"Acquisition\",\"parentId\":0,\"seqNo\":0,\"roleCode\":\"CANCELATIONPLICYROLE\",\"roleName\":\"Cancelation Policy Role\",\"info\":\"\",\"canAdd\":true,\"canEdit\":true,\"canView\":true,\"canDelete\":true,\"workflowId\":\"\",\"entryDate\":\"2016-05-03T15:39:10.15Z\",\"lastUpdatedTime\":\"2016-05-03T15:39:10.15Z\"},{\"id\":77727,\"name\":\"ACQUISITION\",\"caption\":\"Acquisition\",\"parentId\":0,\"seqNo\":0,\"roleCode\":\"CREATEPOLICYROLE\",\"roleName\":\"Create Policy Role\",\"info\":\"\",\"canAdd\":true,\"canEdit\":true,\"canView\":true,\"canDelete\":true,\"workflowId\":\"\",\"entryDate\":\"2016-05-03T15:39:10.15Z\",\"lastUpdatedTime\":\"2016-05-03T15:39:10.15Z\"},{\"id\":77727,\"name\":\"ACQUISITION\",\"caption\":\"Acquisition\",\"parentId\":0,\"seqNo\":0,\"roleCode\":\"ENDORSEMENPOLICYROLE\",\"roleName\":\"Endorsement Policy Role\",\"info\":\"\",\"canAdd\":true,\"canEdit\":true,\"canView\":true,\"canDelete\":true,\"workflowId\":\"\",\"entryDate\":\"2016-05-03T15:39:10.15Z\",\"lastUpdatedTime\":\"2016-05-03T15:39:10.15Z\"},{\"id\":77727,\"name\":\"ACQUISITION\",\"caption\":\"Acquisition\",\"parentId\":0,\"seqNo\":0,\"roleCode\":\"GNRLACQ\",\"roleName\":\"General Acqst Role\",\"info\":\"\",\"canAdd\":true,\"canEdit\":true,\"canView\":true,\"canDelete\":true,\"workflowId\":\"\",\"entryDate\":\"2016-05-03T15:39:10.15Z\",\"lastUpdatedTime\":\"2016-05-03T15:39:10.15Z\"},{\"id\":77727,\"name\":\"ACQUISITION\",\"caption\":\"Acquisition\",\"parentId\":0,\"seqNo\":0,\"roleCode\":\"INQUIRYPOLICYROLE\",\"roleName\":\"Inquiry Policy Role\",\"info\":\"\",\"canAdd\":true,\"canEdit\":true,\"canView\":true,\"canDelete\":true,\"workflowId\":\"\",\"entryDate\":\"2016-05-03T15:39:10.15Z\",\"lastUpdatedTime\":\"2016-05-03T15:39:10.15Z\"},{\"id\":77727,\"name\":\"ACQUISITION\",\"caption\":\"Acquisition\",\"parentId\":0,\"seqNo\":0,\"roleCode\":\"PPHSO\",\"roleName\":\"Print Policy HSO\",\"info\":\"\",\"canAdd\":true,\"canEdit\":true,\"canView\":true,\"canDelete\":true,\"workflowId\":\"\",\"entryDate\":\"2016-05-03T15:39:10.15Z\",\"lastUpdatedTime\":\"2016-05-03T15:39:10.15Z\"},{\"id\":77727,\"name\":\"ACQUISITION\",\"caption\":\"Acquisition\",\"parentId\":0,\"seqNo\":0,\"roleCode\":\"PRINTENDORSPLICYROLE\",\"roleName\":\"Print Endorsement Policy Role\",\"info\":\"\",\"canAdd\":true,\"canEdit\":true,\"canView\":true,\"canDelete\":true,\"workflowId\":\"\",\"entryDate\":\"2016-05-03T15:39:10.15Z\",\"lastUpdatedTime\":\"2016-05-03T15:39:10.15Z\"},{\"id\":77727,\"name\":\"ACQUISITION\",\"caption\":\"Acquisition\",\"parentId\":0,\"seqNo\":0,\"roleCode\":\"PRINTPOLICYROLE\",\"roleName\":\"Print Policy Role\",\"info\":\"\",\"canAdd\":true,\"canEdit\":true,\"canView\":true,\"canDelete\":true,\"workflowId\":\"\",\"entryDate\":\"2016-05-03T15:39:10.15Z\",\"lastUpdatedTime\":\"2016-05-03T15:39:10.15Z\"},{\"id\":1000091,\"name\":\"RENEWAL\",\"caption\":\"Renewal\",\"parentId\":0,\"seqNo\":0,\"roleCode\":\"REGIONALMNGR\",\"roleName\":\"Regional Manager\",\"info\":\"\",\"canAdd\":true,\"canEdit\":true,\"canView\":true,\"canDelete\":true,\"workflowId\":\"\",\"entryDate\":\"2016-05-03T15:39:10.15Z\",\"lastUpdatedTime\":\"2016-05-03T15:39:10.15Z\"},{\"id\":154,\"name\":\"ACKDASHBOARD\",\"caption\":\"Dashboard\",\"parentId\":0,\"seqNo\":1,\"roleCode\":\"GNRLACQ\",\"roleName\":\"General Acqst Role\",\"info\":\"\",\"canAdd\":true,\"canEdit\":true,\"canView\":true,\"canDelete\":true,\"workflowId\":\"\",\"entryDate\":\"2016-05-03T15:39:10.15Z\",\"lastUpdatedTime\":\"2016-05-03T15:39:10.15Z\"},{\"id\":154,\"name\":\"ACKDASHBOARD\",\"caption\":\"Dashboard\",\"parentId\":0,\"seqNo\":1,\"roleCode\":\"INQUIRYPOLICYROLE\",\"roleName\":\"Inquiry Policy Role\",\"info\":\"\",\"canAdd\":true,\"canEdit\":true,\"canView\":true,\"canDelete\":true,\"workflowId\":\"\",\"entryDate\":\"2016-05-03T15:39:10.15Z\",\"lastUpdatedTime\":\"2016-05-03T15:39:10.15Z\"},{\"id\":172,\"name\":\"SPECIALMENUPRT\",\"caption\":\"Special Menu\",\"parentId\":0,\"seqNo\":1,\"roleCode\":\"ROLESPECIALMENU\",\"roleName\":\"Special Menu Access Role\",\"info\":\"\",\"canAdd\":true,\"canEdit\":true,\"canView\":true,\"canDelete\":true,\"workflowId\":\"\",\"entryDate\":\"2016-05-03T15:39:10.15Z\",\"lastUpdatedTime\":\"2016-05-03T15:39:10.15Z\"},{\"id\":1300,\"name\":\"GOXTRA\",\"caption\":\"Gardaoto.com\",\"parentId\":0,\"seqNo\":1,\"roleCode\":\"HONEPOLICYINQUIRY\",\"roleName\":\"Policy Inquiry\",\"info\":\"\",\"canAdd\":true,\"canEdit\":true,\"canView\":true,\"canDelete\":true,\"workflowId\":\"\",\"entryDate\":\"2016-05-03T15:39:10.15Z\",\"lastUpdatedTime\":\"2016-05-03T15:39:10.15Z\"},{\"id\":77708,\"name\":\"MNTSVY\",\"caption\":\"Survey Management\",\"parentId\":0,\"seqNo\":1,\"roleCode\":\"REGIONALMNGR\",\"roleName\":\"Regional Manager\",\"info\":\"\",\"canAdd\":true,\"canEdit\":true,\"canView\":true,\"canDelete\":true,\"workflowId\":\"\",\"entryDate\":\"2016-05-03T15:39:10.15Z\",\"lastUpdatedTime\":\"2016-05-03T15:39:10.15Z\"},{\"id\":1000138,\"name\":\"Delivery\",\"caption\":\"Delivery\",\"parentId\":0,\"seqNo\":1,\"roleCode\":\"PPHSO\",\"roleName\":\"Print Policy HSO\",\"info\":\"\",\"canAdd\":true,\"canEdit\":true,\"canView\":true,\"canDelete\":true,\"workflowId\":\"\",\"entryDate\":\"2016-05-03T15:39:10.15Z\",\"lastUpdatedTime\":\"2016-05-03T15:39:10.15Z\"},{\"id\":1000138,\"name\":\"Delivery\",\"caption\":\"Delivery\",\"parentId\":0,\"seqNo\":1,\"roleCode\":\"SA\",\"roleName\":\"Sales Staff\",\"info\":\"\",\"canAdd\":true,\"canEdit\":true,\"canView\":true,\"canDelete\":true,\"workflowId\":\"\",\"entryDate\":\"2016-05-03T15:39:10.15Z\",\"lastUpdatedTime\":\"2016-05-03T15:39:10.15Z\"},{\"id\":702,\"name\":\"TELERENEWAL\",\"caption\":\"Telesales/Telerenewal\",\"parentId\":0,\"seqNo\":2,\"roleCode\":\"TELERENEWAL\",\"roleName\":\"Telerenewal\",\"info\":\"\",\"canAdd\":true,\"canEdit\":true,\"canView\":true,\"canDelete\":true,\"workflowId\":\"\",\"entryDate\":\"2016-05-03T15:39:10.15Z\",\"lastUpdatedTime\":\"2016-05-03T15:39:10.15Z\"},{\"id\":41,\"name\":\"PARETAIL\",\"caption\":\"PA Retail\",\"parentId\":0,\"seqNo\":3,\"roleCode\":\"PAALL\",\"roleName\":\"All\",\"info\":\"\",\"canAdd\":true,\"canEdit\":true,\"canView\":true,\"canDelete\":true,\"workflowId\":\"\",\"entryDate\":\"2016-05-03T15:39:10.15Z\",\"lastUpdatedTime\":\"2016-05-03T15:39:10.15Z\"},{\"id\":41,\"name\":\"PARETAIL\",\"caption\":\"PA Retail\",\"parentId\":0,\"seqNo\":3,\"roleCode\":\"PATOOLS\",\"roleName\":\"Tools\",\"info\":\"\",\"canAdd\":true,\"canEdit\":true,\"canView\":true,\"canDelete\":true,\"workflowId\":\"\",\"entryDate\":\"2016-05-03T15:39:10.15Z\",\"lastUpdatedTime\":\"2016-05-03T15:39:10.15Z\"},{\"id\":1000075,\"name\":\"INFOCENTERPRT\",\"caption\":\"InfoCenter\",\"parentId\":0,\"seqNo\":3,\"roleCode\":\"InfoCenter\",\"roleName\":\"InfoCenter\",\"info\":\"\",\"canAdd\":true,\"canEdit\":true,\"canView\":true,\"canDelete\":true,\"workflowId\":\"\",\"entryDate\":\"2016-05-03T15:39:10.15Z\",\"lastUpdatedTime\":\"2016-05-03T15:39:10.15Z\"},{\"id\":19,\"name\":\"MAINTENANCE\",\"caption\":\"Maintenance\",\"parentId\":0,\"seqNo\":4,\"roleCode\":\"MAINCUSTINFO\",\"roleName\":\"Maintenance Customer Info\",\"info\":\"\",\"canAdd\":true,\"canEdit\":true,\"canView\":true,\"canDelete\":true,\"workflowId\":\"\",\"entryDate\":\"2016-05-03T15:39:10.15Z\",\"lastUpdatedTime\":\"2016-05-03T15:39:10.15Z\"},{\"id\":1000066,\"name\":\"AR\",\"caption\":\"A/R\",\"parentId\":0,\"seqNo\":500,\"roleCode\":\"PRINTPOLICYROLE\",\"roleName\":\"Print Policy Role\",\"info\":\"\",\"canAdd\":true,\"canEdit\":true,\"canView\":true,\"canDelete\":true,\"workflowId\":\"\",\"entryDate\":\"2016-05-03T15:39:10.15Z\",\"lastUpdatedTime\":\"2016-05-03T15:39:10.15Z\"},{\"id\":72,\"name\":\"CLAIMTRACK\",\"caption\":\"Tracking\",\"parentId\":0,\"seqNo\":2222,\"roleCode\":\"CHECKER\",\"roleName\":\"Checker\",\"info\":\"\",\"canAdd\":true,\"canEdit\":true,\"canView\":true,\"canDelete\":true,\"workflowId\":\"\",\"entryDate\":\"2016-05-03T15:39:10.15Z\",\"lastUpdatedTime\":\"2016-05-03T15:39:10.15Z\"},{\"id\":12,\"name\":\"CLAIM\",\"caption\":\"Claim\",\"parentId\":0,\"seqNo\":5678,\"roleCode\":\"CHECKER\",\"roleName\":\"Checker\",\"info\":\"\",\"canAdd\":true,\"canEdit\":true,\"canView\":true,\"canDelete\":true,\"workflowId\":\"\",\"entryDate\":\"2016-05-03T15:39:10.15Z\",\"lastUpdatedTime\":\"2016-05-03T15:39:10.15Z\"},{\"id\":7772719,\"name\":\"MISCRETAIL\",\"caption\":\"Miscellaneous Retail\",\"parentId\":0,\"seqNo\":10000,\"roleCode\":\"MISCCREATE\",\"roleName\":\"Create\",\"info\":\"\",\"canAdd\":true,\"canEdit\":true,\"canView\":true,\"canDelete\":true,\"workflowId\":\"\",\"entryDate\":\"2016-05-03T15:39:10.15Z\",\"lastUpdatedTime\":\"2016-05-03T15:39:10.15Z\"},{\"id\":7772719,\"name\":\"MISCRETAIL\",\"caption\":\"Miscellaneous Retail\",\"parentId\":0,\"seqNo\":10000,\"roleCode\":\"MISCPRINT\",\"roleName\":\"Print\",\"info\":\"\",\"canAdd\":true,\"canEdit\":true,\"canView\":true,\"canDelete\":true,\"workflowId\":\"\",\"entryDate\":\"2016-05-03T15:39:10.15Z\",\"lastUpdatedTime\":\"2016-05-03T15:39:10.15Z\"},{\"id\":7772719,\"name\":\"MISCRETAIL\",\"caption\":\"Miscellaneous Retail\",\"parentId\":0,\"seqNo\":10000,\"roleCode\":\"MISCVIEW\",\"roleName\":\"View\",\"info\":\"\",\"canAdd\":false,\"canEdit\":false,\"canView\":true,\"canDelete\":false,\"workflowId\":\"\",\"entryDate\":\"2016-05-03T15:39:10.15Z\",\"lastUpdatedTime\":\"2016-05-03T15:39:10.15Z\"},{\"id\":73,\"name\":\"CLAIMTRACKING\",\"caption\":\"Claim Tracking\",\"parentId\":12,\"seqNo\":1111,\"roleCode\":\"CHECKER\",\"roleName\":\"Checker\",\"info\":\"ClaimTracking/Index\",\"canAdd\":true,\"canEdit\":true,\"canView\":true,\"canDelete\":true,\"workflowId\":\"\",\"entryDate\":\"2016-05-03T15:39:10.15Z\",\"lastUpdatedTime\":\"2016-05-03T15:39:10.15Z\"},{\"id\":20,\"name\":\"CLAIMCHECKER\",\"caption\":\"Claim Checking\",\"parentId\":12,\"seqNo\":3002,\"roleCode\":\"CHECKER\",\"roleName\":\"Checker\",\"info\":\"ClaimChecker/Index\",\"canAdd\":true,\"canEdit\":true,\"canView\":true,\"canDelete\":true,\"workflowId\":\"\",\"entryDate\":\"2016-05-03T15:39:10.15Z\",\"lastUpdatedTime\":\"2016-05-03T15:39:10.15Z\"},{\"id\":196,\"name\":\"CIFCATEGORY\",\"caption\":\"Customer Category\",\"parentId\":19,\"seqNo\":1,\"roleCode\":\"MAINCUSTINFO\",\"roleName\":\"Maintenance Customer Info\",\"info\":\"UpdateVIPStatus/Index\",\"canAdd\":true,\"canEdit\":true,\"canView\":true,\"canDelete\":true,\"workflowId\":\"\",\"entryDate\":\"2016-05-03T15:39:10.15Z\",\"lastUpdatedTime\":\"2016-05-03T15:39:10.15Z\"},{\"id\":196,\"name\":\"CIFCATEGORY\",\"caption\":\"Customer Category\",\"parentId\":19,\"seqNo\":1,\"roleCode\":\"ROLESPECIALMENU\",\"roleName\":\"Special Menu Access Role\",\"info\":\"UpdateVIPStatus/Index\",\"canAdd\":true,\"canEdit\":true,\"canView\":true,\"canDelete\":true,\"workflowId\":\"\",\"entryDate\":\"2016-05-03T15:39:10.15Z\",\"lastUpdatedTime\":\"2016-05-03T15:39:10.15Z\"},{\"id\":77721,\"name\":\"CUSTOMERINFO\",\"caption\":\"Customer Info\",\"parentId\":19,\"seqNo\":8,\"roleCode\":\"MAINCUSTINFO\",\"roleName\":\"Maintenance Customer Info\",\"info\":\"CustomerInfo/Index\",\"canAdd\":true,\"canEdit\":true,\"canView\":true,\"canDelete\":true,\"workflowId\":\"\",\"entryDate\":\"2016-05-03T15:39:10.15Z\",\"lastUpdatedTime\":\"2016-05-03T15:39:10.15Z\"},{\"id\":42,\"name\":\"PAPOLICY\",\"caption\":\"Policy\",\"parentId\":41,\"seqNo\":1,\"roleCode\":\"PAALL\",\"roleName\":\"All\",\"info\":\"PAPolicy/Index\",\"canAdd\":true,\"canEdit\":true,\"canView\":true,\"canDelete\":true,\"workflowId\":\"\",\"entryDate\":\"2016-05-03T15:39:10.15Z\",\"lastUpdatedTime\":\"2016-05-03T15:39:10.15Z\"},{\"id\":44,\"name\":\"PATOOLS\",\"caption\":\"Tools\",\"parentId\":41,\"seqNo\":3,\"roleCode\":\"PATOOLS\",\"roleName\":\"Tools\",\"info\":\"PATools/Index\",\"canAdd\":true,\"canEdit\":true,\"canView\":true,\"canDelete\":true,\"workflowId\":\"\",\"entryDate\":\"2016-05-03T15:39:10.15Z\",\"lastUpdatedTime\":\"2016-05-03T15:39:10.15Z\"},{\"id\":173,\"name\":\"SPECIALMENU\",\"caption\":\"Special Menu\",\"parentId\":172,\"seqNo\":1,\"roleCode\":\"ROLESPECIALMENU\",\"roleName\":\"Special Menu Access Role\",\"info\":\"SpecialMenu/Index\",\"canAdd\":true,\"canEdit\":true,\"canView\":true,\"canDelete\":true,\"workflowId\":\"\",\"entryDate\":\"2016-05-03T15:39:10.15Z\",\"lastUpdatedTime\":\"2016-05-03T15:39:10.15Z\"},{\"id\":77738,\"name\":\"CREATEURLNEWGODIG\",\"caption\":\"Create URL New GO Digital\",\"parentId\":702,\"seqNo\":3,\"roleCode\":\"GNRLACQ\",\"roleName\":\"General Acqst Role\",\"info\":\"CreateUrlPayment/Index\",\"canAdd\":true,\"canEdit\":true,\"canView\":true,\"canDelete\":true,\"workflowId\":\"\",\"entryDate\":\"2016-05-03T15:39:10.15Z\",\"lastUpdatedTime\":\"2016-05-03T15:39:10.15Z\"},{\"id\":1000065,\"name\":\"ORDERSTATUSGODIGITAL\",\"caption\":\"Order Status GO Digital\",\"parentId\":702,\"seqNo\":3,\"roleCode\":\"TELERENEWAL\",\"roleName\":\"Telerenewal\",\"info\":\"OrderStatusGODigital/Index\",\"canAdd\":true,\"canEdit\":true,\"canView\":true,\"canDelete\":true,\"workflowId\":\"\",\"entryDate\":\"2016-05-03T15:39:10.15Z\",\"lastUpdatedTime\":\"2016-05-03T15:39:10.15Z\"},{\"id\":8,\"name\":\"HONEPOLICYINQUIRY\",\"caption\":\"Inquiry Policy Non MV\",\"parentId\":1300,\"seqNo\":1,\"roleCode\":\"HONEPOLICYINQUIRY\",\"roleName\":\"Policy Inquiry\",\"info\":\"HOnePolicyInquiry/Index\",\"canAdd\":true,\"canEdit\":true,\"canView\":true,\"canDelete\":true,\"workflowId\":\"\",\"entryDate\":\"2016-05-03T15:39:10.15Z\",\"lastUpdatedTime\":\"2016-05-03T15:39:10.15Z\"},{\"id\":7772709,\"name\":\"ADJWORKSHOPAPPRMENU\",\"caption\":\"Workshop Adjustment Approval\",\"parentId\":77708,\"seqNo\":4,\"roleCode\":\"REGIONALMNGR\",\"roleName\":\"Regional Manager\",\"info\":\"WorkshopAdjustmentApproval/Index\",\"canAdd\":true,\"canEdit\":true,\"canView\":true,\"canDelete\":true,\"workflowId\":\"\",\"entryDate\":\"2016-05-03T15:39:10.15Z\",\"lastUpdatedTime\":\"2016-05-03T15:39:10.15Z\"},{\"id\":77722,\"name\":\"MAINTENANCEACC\",\"caption\":\"Maintenance Accessories\",\"parentId\":77717,\"seqNo\":8,\"roleCode\":\"MAINCUSTINFO\",\"roleName\":\"Maintenance Customer Info\",\"info\":\"MaintenanceAccessories/Index\",\"canAdd\":true,\"canEdit\":true,\"canView\":true,\"canDelete\":true,\"workflowId\":\"\",\"entryDate\":\"2016-05-03T15:39:10.15Z\",\"lastUpdatedTime\":\"2016-05-03T15:39:10.15Z\"},{\"id\":155,\"name\":\"ACKTASKLIST\",\"caption\":\"Task List SA\",\"parentId\":77727,\"seqNo\":1,\"roleCode\":\"GNRLACQ\",\"roleName\":\"General Acqst Role\",\"info\":\"TaskList/Index\",\"canAdd\":true,\"canEdit\":true,\"canView\":true,\"canDelete\":true,\"workflowId\":\"\",\"entryDate\":\"2016-05-03T15:39:10.15Z\",\"lastUpdatedTime\":\"2016-05-03T15:39:10.15Z\"},{\"id\":1000016,\"name\":\"CREATEPOLICY\",\"caption\":\"Create Policy\",\"parentId\":77727,\"seqNo\":1,\"roleCode\":\"CREATEPOLICYROLE\",\"roleName\":\"Create Policy Role\",\"info\":\"CreatePolicy/Index\",\"canAdd\":true,\"canEdit\":true,\"canView\":true,\"canDelete\":true,\"workflowId\":\"\",\"entryDate\":\"2016-05-03T15:39:10.15Z\",\"lastUpdatedTime\":\"2016-05-03T15:39:10.15Z\"},{\"id\":1000070,\"name\":\"ENDORSEMENPOLICYMENU\",\"caption\":\"Endorsement Policy\",\"parentId\":77727,\"seqNo\":2,\"roleCode\":\"ENDORSEMENPOLICYROLE\",\"roleName\":\"Endorsement Policy Role\",\"info\":\"EndorsementPolicy/Index\",\"canAdd\":true,\"canEdit\":true,\"canView\":true,\"canDelete\":true,\"workflowId\":\"\",\"entryDate\":\"2016-05-03T15:39:10.15Z\",\"lastUpdatedTime\":\"2016-05-03T15:39:10.15Z\"},{\"id\":1000072,\"name\":\"CANCELATIONPLICYMENU\",\"caption\":\"Cancelation Policy\",\"parentId\":77727,\"seqNo\":3,\"roleCode\":\"CANCELATIONPLICYROLE\",\"roleName\":\"Cancelation Policy Role\",\"info\":\"CancelationPolicy/Index\",\"canAdd\":true,\"canEdit\":true,\"canView\":true,\"canDelete\":true,\"workflowId\":\"\",\"entryDate\":\"2016-05-03T15:39:10.15Z\",\"lastUpdatedTime\":\"2016-05-03T15:39:10.15Z\"},{\"id\":1000019,\"name\":\"INQUIRYPOLICY\",\"caption\":\"Inquiry Policy\",\"parentId\":77727,\"seqNo\":4,\"roleCode\":\"INQUIRYPOLICYROLE\",\"roleName\":\"Inquiry Policy Role\",\"info\":\"InquiryPolicy/Index\",\"canAdd\":true,\"canEdit\":true,\"canView\":true,\"canDelete\":true,\"workflowId\":\"\",\"entryDate\":\"2016-05-03T15:39:10.15Z\",\"lastUpdatedTime\":\"2016-05-03T15:39:10.15Z\"},{\"id\":1000018,\"name\":\"PRINTPOLICY\",\"caption\":\"Print Policy\",\"parentId\":77727,\"seqNo\":5,\"roleCode\":\"PRINTPOLICYROLE\",\"roleName\":\"Print Policy Role\",\"info\":\"PrintPolicy/Index\",\"canAdd\":true,\"canEdit\":true,\"canView\":true,\"canDelete\":true,\"workflowId\":\"\",\"entryDate\":\"2016-05-03T15:39:10.15Z\",\"lastUpdatedTime\":\"2016-05-03T15:39:10.15Z\"},{\"id\":1000058,\"name\":\"PrintCertificate\",\"caption\":\"Print Certificate & B2B Document\",\"parentId\":77727,\"seqNo\":6,\"roleCode\":\"PRINTPOLICYROLE\",\"roleName\":\"Print Policy Role\",\"info\":\"PrintCertificate/Index\",\"canAdd\":true,\"canEdit\":true,\"canView\":true,\"canDelete\":true,\"workflowId\":\"\",\"entryDate\":\"2016-05-03T15:39:10.15Z\",\"lastUpdatedTime\":\"2016-05-03T15:39:10.15Z\"},{\"id\":1000058,\"name\":\"PrintCertificate\",\"caption\":\"Print Certificate & B2B Document\",\"parentId\":77727,\"seqNo\":6,\"roleCode\":\"ROLESPECIALMENU\",\"roleName\":\"Special Menu Access Role\",\"info\":\"PrintCertificate/Index\",\"canAdd\":true,\"canEdit\":true,\"canView\":true,\"canDelete\":true,\"workflowId\":\"\",\"entryDate\":\"2016-05-03T15:39:10.15Z\",\"lastUpdatedTime\":\"2016-05-03T15:39:10.15Z\"},{\"id\":1000071,\"name\":\"PRINTENDORSPLICYMENU\",\"caption\":\"Print Endorsement Policy\",\"parentId\":77727,\"seqNo\":6,\"roleCode\":\"PRINTENDORSPLICYROLE\",\"roleName\":\"Print Endorsement Policy Role\",\"info\":\"PrintEndorseCancel/Index\",\"canAdd\":true,\"canEdit\":true,\"canView\":true,\"canDelete\":true,\"workflowId\":\"\",\"entryDate\":\"2016-05-03T15:39:10.15Z\",\"lastUpdatedTime\":\"2016-05-03T15:39:10.15Z\"},{\"id\":1000170,\"name\":\"PRINTPOLICYCSO\",\"caption\":\"Print Policy CSO\",\"parentId\":77727,\"seqNo\":11,\"roleCode\":\"PPCSO\",\"roleName\":\"PP CSO\",\"info\":\"PrintPolicyCSO/Index\",\"canAdd\":true,\"canEdit\":true,\"canView\":true,\"canDelete\":true,\"workflowId\":\"\",\"entryDate\":\"2016-05-03T15:39:10.15Z\",\"lastUpdatedTime\":\"2016-05-03T15:39:10.15Z\"},{\"id\":1000189,\"name\":\"UPLOADPOLICY\",\"caption\":\"Upload Policy\",\"parentId\":77727,\"seqNo\":14,\"roleCode\":\"UPLCY\",\"roleName\":\"Upload Policy\",\"info\":\"UploadPolicy/Index\",\"canAdd\":true,\"canEdit\":true,\"canView\":true,\"canDelete\":true,\"workflowId\":\"\",\"entryDate\":\"2016-05-03T15:39:10.15Z\",\"lastUpdatedTime\":\"2016-05-03T15:39:10.15Z\"},{\"id\":1001001,\"name\":\"PRINTPOLICYHSO\",\"caption\":\"Print Policy HSO\",\"parentId\":77727,\"seqNo\":15,\"roleCode\":\"PPHSO\",\"roleName\":\"Print Policy HSO\",\"info\":\"PrintPolicyHSO/Index\",\"canAdd\":true,\"canEdit\":true,\"canView\":true,\"canDelete\":true,\"workflowId\":\"\",\"entryDate\":\"2016-05-03T15:39:10.15Z\",\"lastUpdatedTime\":\"2016-05-03T15:39:10.15Z\"},{\"id\":7772701,\"name\":\"B2BVehicleMapping\",\"caption\":\"B2B Vehicle Mapping\",\"parentId\":77727,\"seqNo\":16,\"roleCode\":\"PPHSO\",\"roleName\":\"Print Policy HSO\",\"info\":\"B2BVehicleMapping/Index\",\"canAdd\":true,\"canEdit\":true,\"canView\":true,\"canDelete\":true,\"workflowId\":\"\",\"entryDate\":\"2016-05-03T15:39:10.15Z\",\"lastUpdatedTime\":\"2016-05-03T15:39:10.15Z\"},{\"id\":7772708,\"name\":\"B2BFileUpload\",\"caption\":\"B2B File Upload\",\"parentId\":77727,\"seqNo\":17,\"roleCode\":\"PPHSO\",\"roleName\":\"Print Policy HSO\",\"info\":\"B2BFileUpload/Index\",\"canAdd\":true,\"canEdit\":true,\"canView\":true,\"canDelete\":true,\"workflowId\":\"\",\"entryDate\":\"2016-05-03T15:39:10.15Z\",\"lastUpdatedTime\":\"2016-05-03T15:39:10.15Z\"},{\"id\":1000062,\"name\":\"InfoCenter\",\"caption\":\"InfoCenter\",\"parentId\":1000075,\"seqNo\":3,\"roleCode\":\"InfoCenter\",\"roleName\":\"InfoCenter\",\"info\":\"InfoCenter/Index\",\"canAdd\":true,\"canEdit\":true,\"canView\":true,\"canDelete\":true,\"workflowId\":\"\",\"entryDate\":\"2016-05-03T15:39:10.15Z\",\"lastUpdatedTime\":\"2016-05-03T15:39:10.15Z\"},{\"id\":1000093,\"name\":\"RENEWALTRANSFER\",\"caption\":\"Request Perpindahan Renewal\",\"parentId\":1000091,\"seqNo\":4,\"roleCode\":\"REGIONALMNGR\",\"roleName\":\"Regional Manager\",\"info\":\"RenewalTransferRequest/Index\",\"canAdd\":true,\"canEdit\":true,\"canView\":true,\"canDelete\":true,\"workflowId\":\"\",\"entryDate\":\"2016-05-03T15:39:10.15Z\",\"lastUpdatedTime\":\"2016-05-03T15:39:10.15Z\"},{\"id\":1000139,\"name\":\"PrintCoveringLetter\",\"caption\":\"Print Covering Letter\",\"parentId\":1000138,\"seqNo\":2,\"roleCode\":\"PPHSO\",\"roleName\":\"Print Policy HSO\",\"info\":\"PrintCoveringLetter/Index\",\"canAdd\":true,\"canEdit\":true,\"canView\":true,\"canDelete\":true,\"workflowId\":\"\",\"entryDate\":\"2016-05-03T15:39:10.15Z\",\"lastUpdatedTime\":\"2016-05-03T15:39:10.15Z\"},{\"id\":1000139,\"name\":\"PrintCoveringLetter\",\"caption\":\"Print Covering Letter\",\"parentId\":1000138,\"seqNo\":2,\"roleCode\":\"SA\",\"roleName\":\"Sales Staff\",\"info\":\"PrintCoveringLetter/Index\",\"canAdd\":true,\"canEdit\":true,\"canView\":true,\"canDelete\":true,\"workflowId\":\"\",\"entryDate\":\"2016-05-03T15:39:10.15Z\",\"lastUpdatedTime\":\"2016-05-03T15:39:10.15Z\"},{\"id\":1000140,\"name\":\"SendDocument\",\"caption\":\"Send Document\",\"parentId\":1000138,\"seqNo\":3,\"roleCode\":\"PPHSO\",\"roleName\":\"Print Policy HSO\",\"info\":\"SendDocument/Index\",\"canAdd\":true,\"canEdit\":true,\"canView\":true,\"canDelete\":true,\"workflowId\":\"\",\"entryDate\":\"2016-05-03T15:39:10.15Z\",\"lastUpdatedTime\":\"2016-05-03T15:39:10.15Z\"},{\"id\":1000140,\"name\":\"SendDocument\",\"caption\":\"Send Document\",\"parentId\":1000138,\"seqNo\":3,\"roleCode\":\"SA\",\"roleName\":\"Sales Staff\",\"info\":\"SendDocument/Index\",\"canAdd\":true,\"canEdit\":true,\"canView\":true,\"canDelete\":true,\"workflowId\":\"\",\"entryDate\":\"2016-05-03T15:39:10.15Z\",\"lastUpdatedTime\":\"2016-05-03T15:39:10.15Z\"},{\"id\":1000144,\"name\":\"InquiryDelivery\",\"caption\":\"Inquiry Delivery\",\"parentId\":1000138,\"seqNo\":7,\"roleCode\":\"SA\",\"roleName\":\"Sales Staff\",\"info\":\"InquiryDelivery/Index\",\"canAdd\":true,\"canEdit\":true,\"canView\":true,\"canDelete\":true,\"workflowId\":\"\",\"entryDate\":\"2016-05-03T15:39:10.15Z\",\"lastUpdatedTime\":\"2016-05-03T15:39:10.15Z\"},{\"id\":7772720,\"name\":\"MISCPOLICY\",\"caption\":\"Policy\",\"parentId\":7772719,\"seqNo\":1,\"roleCode\":\"MISCCREATE\",\"roleName\":\"Create\",\"info\":\"MISCPolicy/Index\",\"canAdd\":true,\"canEdit\":true,\"canView\":true,\"canDelete\":true,\"workflowId\":\"\",\"entryDate\":\"2016-05-03T15:39:10.15Z\",\"lastUpdatedTime\":\"2016-05-03T15:39:10.15Z\"},{\"id\":7772720,\"name\":\"MISCPOLICY\",\"caption\":\"Policy\",\"parentId\":7772719,\"seqNo\":1,\"roleCode\":\"MISCPRINT\",\"roleName\":\"Print\",\"info\":\"MISCPolicy/Index\",\"canAdd\":true,\"canEdit\":true,\"canView\":true,\"canDelete\":true,\"workflowId\":\"\",\"entryDate\":\"2016-05-03T15:39:10.15Z\",\"lastUpdatedTime\":\"2016-05-03T15:39:10.15Z\"},{\"id\":7772720,\"name\":\"MISCPOLICY\",\"caption\":\"Policy\",\"parentId\":7772719,\"seqNo\":1,\"roleCode\":\"MISCVIEW\",\"roleName\":\"View\",\"info\":\"MISCPolicy/Index\",\"canAdd\":false,\"canEdit\":false,\"canView\":true,\"canDelete\":false,\"workflowId\":\"\",\"entryDate\":\"2016-05-03T15:39:10.15Z\",\"lastUpdatedTime\":\"2016-05-03T15:39:10.15Z\"},{\"id\":7772721,\"name\":\"MISCCLAIM\",\"caption\":\"Claim\",\"parentId\":7772719,\"seqNo\":2,\"roleCode\":\"MISCVIEW\",\"roleName\":\"View\",\"info\":\"MISCClaim/Index\",\"canAdd\":false,\"canEdit\":false,\"canView\":true,\"canDelete\":false,\"workflowId\":\"\",\"entryDate\":\"2016-05-03T15:39:10.15Z\",\"lastUpdatedTime\":\"2016-05-03T15:39:10.15Z\"},{\"id\":7772722,\"name\":\"MISCPRODUCT\",\"caption\":\"Product\",\"parentId\":7772719,\"seqNo\":3,\"roleCode\":\"MISCVIEW\",\"roleName\":\"View\",\"info\":\"MiscProduct/Index\",\"canAdd\":false,\"canEdit\":false,\"canView\":true,\"canDelete\":false,\"workflowId\":\"\",\"entryDate\":\"2016-05-03T15:39:10.15Z\",\"lastUpdatedTime\":\"2016-05-03T15:39:10.15Z\"}],\"parameters\":{\"email\":\"ohadisaputra@asuransiastra.com;wnursidik@asuransiastra.com;afahmi@asuransiastra.com;coktavianto@asuransiastra.com;smustikasari@asuransiastra.com\"}}",
          "comment" : ""
        },
        "redirectURL" : "",
        "headersSize" : 586,
        "bodySize" : 22027,
        "comment" : ""
      },
      "cache" : { },
      "timings" : {
        "comment" : "",
        "ssl" : -1,
        "dns" : -1,
        "send" : 0,
        "blocked" : -1,
        "wait" : 0,
        "receive" : 0,
        "connect" : 1362
      },
      "comment" : "",
      "_katalonRequestInformation" : {
        "name" : "24",
        "testObjectId" : "Object Repository/Login/Login",
        "harId" : "33869e55-6690-468b-8fa2-51c2aeec1e7d",
        "reportFolder" : null
      },
      "time" : 1362
    } ],
    "comment" : ""
  }
}