{
  "log" : {
    "version" : "1.2",
    "pages" : [ ],
    "entries" : [ {
      "startedDateTime" : "2020-10-23T09:19:33.607Z",
      "request" : {
        "method" : "POST",
        "url" : "https://gen5-qc.asuransiastra.com/retail/API/InquiryPolicy/GetPolicyList",
        "httpVersion" : "",
        "cookies" : [ ],
        "headers" : [ {
          "name" : "Content-Type",
          "value" : "application/x-www-form-urlencoded"
        }, {
          "name" : "Authorization",
          "value" : "Bearer LKLWD421Jm3cCCpyQSNzuLZL9pHmITQpBdyGAPooHRiYckwCeh1oeg3PGfkLb+/PCbAKvK9DMVpptr5ygQCDCUGT4jz2SoOXbVUDWPTbQMZvlJG/4ITjZP3Hmiz5hq/uzBrlhxpIPVG0d5HsfiVq54K5RmZbkB5aUVfLOvKskL3DJ21K2eza/UqxakDQLWEygU/fmsSbDrgbvaezSGYkp6QdPq8cbg8wTenyQdd2pUR87Azw/qw6gN97+JMqxPnX"
        }, {
          "name" : "Cookie",
          "value" : "EGRUM_BTM=eeda96ff-ceb0-4d96-97c9-7d47b664e244#~#1||0; TS0125c461=015294299a35c2566fc45513b88e9ec631b873bc19711f56807e2ccc54563eae4ca3f84f371541e896100c8cc839067a933598a5af73c1ad29b42fb2d86897ac3607e5daa6"
        } ],
        "queryString" : [ ],
        "postData" : {
          "mimeType" : "application/x-www-form-urlencoded",
          "params" : [ {
            "name" : "searchPolicyParameter",
            "value" : "{\"PageNo\":1,\"PageSize\":10,\"SortOption\":-1,\"SortDirection\":12,\"PolicyNo\":\"\",\"OrderNo\":\"\",\"ChassisNo\":\"CHASSUAST00861\",\"EngineNo\":\"\",\"RegistrationNo\":\"\",\"CustomerID\":\"\",\"ContractNo\":\"\",\"VANumber\":\"\",\"LKNumber\":\"\",\"SPKNumber\":\"\",\"GroupNoteNumber\":\"\"}",
            "comment" : ""
          } ],
          "comment" : ""
        },
        "headersSize" : 0,
        "bodySize" : 0,
        "comment" : ""
      },
      "response" : {
        "status" : 200,
        "statusText" : "",
        "httpVersion" : "",
        "cookies" : [ ],
        "headers" : [ {
          "name" : "X-Frame-Options",
          "value" : "SAMEORIGIN"
        }, {
          "name" : null,
          "value" : "HTTP/1.1 200 OK"
        }, {
          "name" : "Strict-Transport-Security",
          "value" : "max-age=16070400"
        }, {
          "name" : "Cache-Control",
          "value" : "no-cache"
        }, {
          "name" : "X-Content-Type-Options",
          "value" : "nosniff"
        }, {
          "name" : "Set-Cookie",
          "value" : "TS0125c461=015294299ad23404ab6daf0d01bbd046914f90629db8c5fb0a3e7cd272fd4cd95a37dea4d31e6165a08b7d7e43f895065bd3fce541969112a9fc190bb54297ba122ed52dec; Path=/; Domain=.gen5-qc.asuransiastra.com"
        }, {
          "name" : "Set-Cookie",
          "value" : "EGRUM_BTM=6ea50147-8cfd-4820-9191-712c23378ded#~#1||0; path=/"
        }, {
          "name" : "Expires",
          "value" : "-1"
        }, {
          "name" : "Pragma",
          "value" : "no-cache"
        }, {
          "name" : "X-XSS-Protection",
          "value" : "1; mode=block"
        }, {
          "name" : "Content-Length",
          "value" : "916"
        }, {
          "name" : "Date",
          "value" : "Fri, 23 Oct 2020 09:20:02 GMT"
        }, {
          "name" : "Content-Type",
          "value" : "application/json; charset=utf-8"
        } ],
        "content" : {
          "size" : 916,
          "mimeType" : "application/json; charset=utf-8",
          "text" : "{\"CurrentPage\":1,\"TotalPages\":1,\"TotalItems\":1,\"ItemsPerPage\":10,\"Status\":true,\"Message\":\"OK\",\"Data\":[{\"RowID\":1,\"PolicyID\":\"000018453352\",\"PolicyNo\":\"1901929140      \",\"VANumber\":\"11190080807\",\"PolicyEndorsementNo\":0,\"PolicyHolderCode\":\"163562415  \",\"CustomerID\":\"163562415  \",\"NameOnPolicy\":\"TUIR\",\"PolicyPeriodFrom\":\"02-12-2019\",\"PolicyPeriodTo\":\"02-12-2020\",\"PolicyOrderNo\":\"1190034568     \",\"ChassisNo\":\"CHASSUAST00861                \",\"EngineNo\":\"ENGUAST00861                  \",\"RegistrationNo\":\"B5FG\",\"ContractNo\":\"                                                  \",\"VehicleDescription\":\"NISSAN ALL NEW GRAND LIVINA 1.5 SV CVT\",\"OrderStatus\":\"11\",\"OrderStatusDescription\":\"Policy Printed\",\"OrderType\":\"1\",\"OrderTypeDescription\":\"New Policy\",\"OrderStatusGroup\":\"3  \",\"OrderStatusGroupDescription\":\"Policy Created\",\"DataState\":\"POLICY\",\"TotalSize\":1,\"ProductCode\":\"GEU10\"}],\"Error\":\"\",\"NextApprovalUser\":null}",
          "comment" : ""
        },
        "redirectURL" : "",
        "headersSize" : 524,
        "bodySize" : 916,
        "comment" : ""
      },
      "cache" : { },
      "timings" : {
        "comment" : "",
        "ssl" : -1,
        "dns" : -1,
        "send" : 0,
        "blocked" : -1,
        "wait" : 0,
        "receive" : 0,
        "connect" : 492
      },
      "comment" : "",
      "_katalonRequestInformation" : {
        "name" : "31",
        "testObjectId" : "Object Repository/Inquiry Policy/GetPolicyList",
        "harId" : "8fff7fc9-4157-4755-b14b-d9183fdf45cd",
        "reportFolder" : null
      },
      "time" : 492
    } ],
    "comment" : ""
  }
}