{
  "log" : {
    "version" : "1.2",
    "pages" : [ ],
    "entries" : [ {
      "startedDateTime" : "2020-10-23T09:19:00.962Z",
      "request" : {
        "method" : "POST",
        "url" : "https://gen5-qc.asuransiastra.com/retail/API/InquiryPolicy/GetWorkflowHistoryInfo",
        "httpVersion" : "",
        "cookies" : [ ],
        "headers" : [ {
          "name" : "Authorization",
          "value" : "Bearer stbgrh7QK+4lF6ZNi6Fx+/kBbh0cbQmR1k8iP4u9t30qL7FmPKhp+vdqBzhGdfyT6Ukaq54KTR01LvlVo2cf+1UFqk80/uv8Kfyummavl7zWansKk0nJ13ONnPV9Yxj3Kq6XbU1ekhZhO9EOl30oKE4E800dcvRzY/oBB/5koD7qVu8T2CDgib+1qf4vFMSz/Hk9c76AXg6GDw6rAqz75CYbafuqnAeQ01hpu6I3kPSqPfuNwxVW6GD2iwasP1MS"
        }, {
          "name" : "Cookie",
          "value" : "${Cookie}"
        }, {
          "name" : "Content-Type",
          "value" : "application/x-www-form-urlencoded"
        } ],
        "queryString" : [ ],
        "postData" : {
          "mimeType" : "application/x-www-form-urlencoded",
          "params" : [ {
            "name" : "PolicyNo",
            "value" : "2004306900",
            "comment" : ""
          }, {
            "name" : "OrderNo",
            "value" : "1200052652",
            "comment" : ""
          }, {
            "name" : "EndorsementNo",
            "value" : "0",
            "comment" : ""
          }, {
            "name" : "SortOption",
            "value" : "-1",
            "comment" : ""
          }, {
            "name" : "SortDirection",
            "value" : "12",
            "comment" : ""
          } ],
          "comment" : ""
        },
        "headersSize" : 0,
        "bodySize" : 0,
        "comment" : ""
      },
      "response" : {
        "status" : 200,
        "statusText" : "",
        "httpVersion" : "",
        "cookies" : [ ],
        "headers" : [ {
          "name" : "X-Frame-Options",
          "value" : "SAMEORIGIN"
        }, {
          "name" : null,
          "value" : "HTTP/1.1 200 OK"
        }, {
          "name" : "Strict-Transport-Security",
          "value" : "max-age=16070400"
        }, {
          "name" : "Cache-Control",
          "value" : "no-cache"
        }, {
          "name" : "X-Content-Type-Options",
          "value" : "nosniff"
        }, {
          "name" : "Set-Cookie",
          "value" : "TS0125c461=015294299a458093ed5c37e311d91da12f476a4b020ade300c69c4d6a7ac244871c957140cfdf637bfcbaf682fcc86c7796a6656830eee2fb9a4c6c5803e4ca69d0ded2db2; Path=/; Domain=.gen5-qc.asuransiastra.com"
        }, {
          "name" : "Set-Cookie",
          "value" : "EGRUM_BTM=bd39d4c4-5434-48ad-b91a-6d5571ca9229#~#1||0; path=/"
        }, {
          "name" : "Expires",
          "value" : "-1"
        }, {
          "name" : "Pragma",
          "value" : "no-cache"
        }, {
          "name" : "X-XSS-Protection",
          "value" : "1; mode=block"
        }, {
          "name" : "Content-Length",
          "value" : "707"
        }, {
          "name" : "Date",
          "value" : "Fri, 23 Oct 2020 09:19:30 GMT"
        }, {
          "name" : "Content-Type",
          "value" : "application/json; charset=utf-8"
        } ],
        "content" : {
          "size" : 707,
          "mimeType" : "application/json; charset=utf-8",
          "text" : "{\"Status\":true,\"Message\":\"OK\",\"Data\":[{\"ordering\":1,\"OrderNo\":\"1200052652     \",\"OrderStatusGroup\":\"General\",\"OrderStatus\":\"Send to SA\",\"EntryUser\":\"UMA  \",\"EntryDate\":\"19-10-2020 15:27:52\"},{\"ordering\":1,\"OrderNo\":\"1200052652     \",\"OrderStatusGroup\":\"General\",\"OrderStatus\":\"Order Submitted\",\"EntryUser\":\"DOC  \",\"EntryDate\":\"19-10-2020 16:03:04\"},{\"ordering\":3,\"OrderNo\":\"1200052652     \",\"OrderStatusGroup\":\"Approval\",\"OrderStatus\":\"Approval level 1 CO\",\"EntryUser\":\"AUTO SYS\",\"EntryDate\":\"19-10-2020 16:04:21\"},{\"ordering\":4,\"OrderNo\":\"1200052652     \",\"OrderStatusGroup\":\"Approval\",\"OrderStatus\":\"Policy Created\",\"EntryUser\":\"SDOC \",\"EntryDate\":\"19-10-2020 16:05:21\"}],\"Error\":\"\",\"NextApprovalUser\":\"\"}",
          "comment" : ""
        },
        "redirectURL" : "",
        "headersSize" : 524,
        "bodySize" : 707,
        "comment" : ""
      },
      "cache" : { },
      "timings" : {
        "comment" : "",
        "ssl" : -1,
        "dns" : -1,
        "send" : 0,
        "blocked" : -1,
        "wait" : 0,
        "receive" : 0,
        "connect" : 1191
      },
      "comment" : "",
      "_katalonRequestInformation" : {
        "name" : "9",
        "testObjectId" : "Object Repository/Inquiry Policy/GetWorkflowHistoryInfo",
        "harId" : "75dd3861-4b2c-40ba-921e-fd0bbc5e8f8d",
        "reportFolder" : null
      },
      "time" : 1191
    } ],
    "comment" : ""
  }
}